{
  "http_interactions": [
    {
      "recorded_at": "2015-12-23T05:52:46",
      "request": {
        "body": {
          "encoding": "utf-8",
          "string": ""
        },
        "headers": {
          "Accept": "*/*",
          "Accept-Encoding": "gzip, deflate",
          "Connection": "keep-alive",
          "User-Agent": "python-semaphoreci/0.1.0.dev"
        },
        "method": "GET",
        "uri": "https://semaphoreci.com/api/v1/projects?auth_token=<AUTH_TOKEN>"
      },
      "response": {
        "body": {
          "encoding": "utf-8",
          "string": "[{\"id\":16828,\"hash_id\":\"dcf83468-07f2-4417-85ae-060ff535569f\",\"name\":\"betamax\",\"owner\":\"sigmavirus24\",\"created_at\":\"2015-12-14T05:38:07Z\",\"updated_at\":\"2015-12-23T05:44:21Z\",\"html_url\":\"https://semaphoreci.com/sigmavirus24/betamax\",\"branches\":[{\"branch_name\":\"master\",\"branch_url\":\"https://semaphoreci.com/sigmavirus24/betamax/branches/master\",\"branch_status_url\":\"https://semaphoreci.com/api/v1/projects/dcf83468-07f2-4417-85ae-060ff535569f/633354/status?auth_token=<AUTH_TOKEN>\",\"branch_history_url\":\"https://semaphoreci.com/api/v1/projects/dcf83468-07f2-4417-85ae-060ff535569f/633354?auth_token=<AUTH_TOKEN>\",\"project_name\":\"betamax\",\"build_url\":\"https://semaphoreci.com/sigmavirus24/betamax/branches/master/builds/16\",\"build_info_url\":\"https://semaphoreci.com/api/v1/projects/dcf83468-07f2-4417-85ae-060ff535569f/633354/builds/16?auth_token=<AUTH_TOKEN>\",\"build_log_url\":\"https://semaphoreci.com/api/v1/projects/dcf83468-07f2-4417-85ae-060ff535569f/633354/builds/16/log?auth_token=<AUTH_TOKEN>\",\"build_number\":16,\"result\":\"stopped\",\"started_at\":null,\"finished_at\":\"2015-12-23T05:44:21Z\",\"commit\":{\"id\":\"bdc11a39e14d49e65d80543aeb2b72a88ce8a7cc\",\"url\":\"https://github.com/sigmavirus24/betamax/commit/bdc11a39e14d49e65d80543aeb2b72a88ce8a7cc\",\"author_name\":\"Ian Cordasco\",\"author_email\":\"graffatcolmingov@gmail.com\",\"message\":\"Fix up docs warnings\\n\\nMake docs warnings errors\\n\\nFix up paragraph's wording\",\"timestamp\":\"2015-12-22T22:14:48Z\"}}],\"servers\":[]}]"
        },
        "headers": {
          "Connection": "keep-alive",
          "Content-Type": "application/json; charset=utf-8",
          "Date": "Wed, 23 Dec 2015 05:52:46 GMT",
          "Server": "nginx/1.6.2 + Phusion Passenger 5.0.6",
          "Set-Cookie": "uid=BAhpAgo6--785eefc43ba5361063efbc280203a8dc0ea3f7e1; path=/; secure; HttpOnly",
          "Status": "200 OK",
          "Transfer-Encoding": "chunked",
          "X-Powered-By": "Phusion Passenger 5.0.6",
          "cache-control": "max-age=0, private, must-revalidate",
          "etag": "W/\"044d62ab1f13319986f63843a7a7a3c3\"",
          "strict-transport-security": "max-age=31536000",
          "x-content-type-options": "nosniff",
          "x-frame-options": "SAMEORIGIN",
          "x-request-id": "a16facca-af5f-4e9c-84c2-cc77bb18fdc5",
          "x-runtime": "0.100122",
          "x-xss-protection": "1; mode=block"
        },
        "status": {
          "code": 200,
          "message": "OK"
        },
        "url": "https://semaphoreci.com/api/v1/projects?auth_token=<AUTH_TOKEN>"
      }
    },
    {
      "recorded_at": "2015-12-23T05:52:46",
      "request": {
        "body": {
          "encoding": "utf-8",
          "string": ""
        },
        "headers": {
          "Accept": "*/*",
          "Accept-Encoding": "gzip, deflate",
          "Connection": "keep-alive",
          "Cookie": "_semaphoreappdotcom_session=BAh7B0kiD3Nlc3Npb25faWQGOgZFVEkiJTRiZTBhNDdhMTVlMDlmYzVjNDk3Nzk1MjFkNTFiYTJiBjsAVEkiEF9jc3JmX3Rva2VuBjsARkkiMStmTU42VFg3WTdOMXJ5RjJZS1V3a2oraHRFZjZ0bXZwcElNR3dtbU9va0E9BjsARg%3D%3D--ba3c321e497f9622629b36cbb4420d6907d4a26b; XSRF-TOKEN=yPAIIrWG8OzqhM58hO%2BWuz1gqTKws80%2FyN3jF7ZSP3UxAwXLgH2TX58r7wrkSqYpAsEddUoFptZsXuXV39ydNQ%3D%3D; username=BAhJIhFzaWdtYXZpcnVzMjQGOgZFVA%3D%3D--8fe1dbbba2038f1b9515c4defdaca1186363d968; uid=BAhpAgo6--785eefc43ba5361063efbc280203a8dc0ea3f7e1",
          "User-Agent": "python-semaphoreci/0.1.0.dev"
        },
        "method": "GET",
        "uri": "https://semaphoreci.com/api/v1/projects/dcf83468-07f2-4417-85ae-060ff535569f/branches?auth_token=<AUTH_TOKEN>"
      },
      "response": {
        "body": {
          "encoding": "utf-8",
          "string": "[{\"id\":633354,\"name\":\"master\",\"branch_url\":\"https://semaphoreci.com/api/v1/projects/dcf83468-07f2-4417-85ae-060ff535569f/633354/status?auth_token=<AUTH_TOKEN>\"}]"
        },
        "headers": {
          "Connection": "keep-alive",
          "Content-Type": "application/json; charset=utf-8",
          "Date": "Wed, 23 Dec 2015 05:52:46 GMT",
          "Server": "nginx/1.6.2 + Phusion Passenger 5.0.6",
          "Set-Cookie": "XSRF-TOKEN=koR6uwc2QobQTJF%2FvCZoxSAIiMD1ARKHBmKOz2raE51rd3dSMs0hNaXjsAncg1hXH6k8hw%2B3eW6i4YgNA1Sx3Q%3D%3D; path=/; secure",
          "Status": "200 OK",
          "Transfer-Encoding": "chunked",
          "X-Powered-By": "Phusion Passenger 5.0.6",
          "cache-control": "max-age=0, private, must-revalidate",
          "etag": "W/\"8692bb6709f966f0acbe1a1eb29fd110\"",
          "strict-transport-security": "max-age=31536000",
          "x-content-type-options": "nosniff",
          "x-frame-options": "SAMEORIGIN",
          "x-request-id": "f3d1e698-32d5-4d23-a6ed-618e2e87fecf",
          "x-runtime": "0.036537",
          "x-xss-protection": "1; mode=block"
        },
        "status": {
          "code": 200,
          "message": "OK"
        },
        "url": "https://semaphoreci.com/api/v1/projects/dcf83468-07f2-4417-85ae-060ff535569f/branches?auth_token=<AUTH_TOKEN>"
      }
    },
    {
      "recorded_at": "2015-12-23T05:52:46",
      "request": {
        "body": {
          "encoding": "utf-8",
          "string": ""
        },
        "headers": {
          "Accept": "*/*",
          "Accept-Encoding": "gzip, deflate",
          "Connection": "keep-alive",
          "Cookie": "_semaphoreappdotcom_session=BAh7B0kiD3Nlc3Npb25faWQGOgZFVEkiJTRiZTBhNDdhMTVlMDlmYzVjNDk3Nzk1MjFkNTFiYTJiBjsAVEkiEF9jc3JmX3Rva2VuBjsARkkiMStmTU42VFg3WTdOMXJ5RjJZS1V3a2oraHRFZjZ0bXZwcElNR3dtbU9va0E9BjsARg%3D%3D--ba3c321e497f9622629b36cbb4420d6907d4a26b; XSRF-TOKEN=koR6uwc2QobQTJF%2FvCZoxSAIiMD1ARKHBmKOz2raE51rd3dSMs0hNaXjsAncg1hXH6k8hw%2B3eW6i4YgNA1Sx3Q%3D%3D; username=BAhJIhFzaWdtYXZpcnVzMjQGOgZFVA%3D%3D--8fe1dbbba2038f1b9515c4defdaca1186363d968; uid=BAhpAgo6--785eefc43ba5361063efbc280203a8dc0ea3f7e1",
          "User-Agent": "python-semaphoreci/0.1.0.dev"
        },
        "method": "GET",
        "uri": "https://semaphoreci.com/api/v1/projects/dcf83468-07f2-4417-85ae-060ff535569f/633354/status?auth_token=<AUTH_TOKEN>"
      },
      "response": {
        "body": {
          "encoding": "utf-8",
          "string": "{\"branch_name\":\"master\",\"branch_url\":\"https://semaphoreci.com/sigmavirus24/betamax/branches/master\",\"branch_status_url\":\"https://semaphoreci.com/api/v1/projects/dcf83468-07f2-4417-85ae-060ff535569f/633354/status?auth_token=<AUTH_TOKEN>\",\"branch_history_url\":\"https://semaphoreci.com/api/v1/projects/dcf83468-07f2-4417-85ae-060ff535569f/633354?auth_token=<AUTH_TOKEN>\",\"project_name\":\"betamax\",\"build_url\":\"https://semaphoreci.com/sigmavirus24/betamax/branches/master/builds/16\",\"build_info_url\":\"https://semaphoreci.com/api/v1/projects/dcf83468-07f2-4417-85ae-060ff535569f/633354/builds/16?auth_token=<AUTH_TOKEN>\",\"build_log_url\":\"https://semaphoreci.com/api/v1/projects/dcf83468-07f2-4417-85ae-060ff535569f/633354/builds/16/log?auth_token=<AUTH_TOKEN>\",\"build_number\":16,\"result\":\"stopped\",\"started_at\":null,\"finished_at\":\"2015-12-23T05:44:21Z\",\"commit\":{\"id\":\"bdc11a39e14d49e65d80543aeb2b72a88ce8a7cc\",\"url\":\"https://github.com/sigmavirus24/betamax/commit/bdc11a39e14d49e65d80543aeb2b72a88ce8a7cc\",\"author_name\":\"Ian Cordasco\",\"author_email\":\"graffatcolmingov@gmail.com\",\"message\":\"Fix up docs warnings\\n\\nMake docs warnings errors\\n\\nFix up paragraph's wording\",\"timestamp\":\"2015-12-22T22:14:48Z\"}}"
        },
        "headers": {
          "Connection": "keep-alive",
          "Content-Type": "application/json; charset=utf-8",
          "Date": "Wed, 23 Dec 2015 05:52:46 GMT",
          "Server": "nginx/1.6.2 + Phusion Passenger 5.0.6",
          "Set-Cookie": "XSRF-TOKEN=K6LcCw1zyjsuQboJ95l5J63j%2FIgrXB6qOunN4Ag2FCXSUdHiOIipiFvum3%2BXPEm1kkJIz9HqdUOeassiYbi2ZQ%3D%3D; path=/; secure",
          "Status": "200 OK",
          "Transfer-Encoding": "chunked",
          "X-Powered-By": "Phusion Passenger 5.0.6",
          "cache-control": "max-age=0, private, must-revalidate",
          "etag": "W/\"ff5c493023083026273d3d7bde6b6eb4\"",
          "strict-transport-security": "max-age=31536000",
          "x-content-type-options": "nosniff",
          "x-frame-options": "SAMEORIGIN",
          "x-request-id": "2f0347b2-5a42-4948-b4f6-ed7bdc8446e2",
          "x-runtime": "0.079616",
          "x-xss-protection": "1; mode=block"
        },
        "status": {
          "code": 200,
          "message": "OK"
        },
        "url": "https://semaphoreci.com/api/v1/projects/dcf83468-07f2-4417-85ae-060ff535569f/633354/status?auth_token=<AUTH_TOKEN>"
      }
    }
  ],
  "recorded_with": "betamax/0.5.1"
}